Climate Change Data Visualization - 1 Visualizations
…
# disable scientific notation for readability purposes
options(scipen = 999)

1.2 Read in data

Data is from the Daily Global Historical Climatology Network (GHCN). It only includes three selected stations (one in AK, AU and HI) and ranges from years 1950 to 2019. The units for elements of interest (TMIN & TMAX: tenths of degrees celsius; PRCP: tenths of mm; SNOW & SNWD: mm).

Code
# read in data
(data_climate_raw <- read_csv("files/data/climate-data.csv",
                         col_names = TRUE, col_types = c("ccDcnccc")))

# A tibble: 268,454 × 8
   StationID   Location Date       Element Value MFlag QFlag SFlag
   <chr>       <chr>    <date>     <chr>   <dbl> <chr> <chr> <chr>
 1 USC00511125 HI       1950-12-01 TMAX      239 <NA>  <NA>  0    
 2 USC00511125 HI       1950-12-01 TMIN      200 <NA>  <NA>  0    
 3 USC00511125 HI       1950-12-01 PRCP       79 <NA>  <NA>  0    
 4 USC00511125 HI       1950-12-01 SNOW        0 <NA>  <NA>  0    
 5 USC00511125 HI       1950-12-01 SNWD        0 <NA>  <NA>  0    
 6 USC00511125 HI       1950-12-02 TMAX      233 <NA>  <NA>  0    
 7 USC00511125 HI       1950-12-02 TMIN      189 <NA>  <NA>  0    
 8 USC00511125 HI       1950-12-02 PRCP      269 <NA>  <NA>  0    
 9 USC00511125 HI       1950-12-02 SNOW        0 <NA>  <NA>  0    
10 USC00511125 HI       1950-12-02 SNWD        0 <NA>  <NA>  0    
# ℹ 268,444 more rows
…
1.3.1 Basic data cleaning

Now lets do some basic cleaning of the data, including removing unnecessary columns and filtering to only the initial elements of interest.

Code
# clean up data
# -> remove unnecessary columns
# -> filter to only desired elements
(data_clean <- data_climate_raw %>% 
  select(-ends_with("Flag"),
         -StationID) %>% 
  filter(Element %in% c("TMIN", "TMAX", "PRCP", "SNOW", "SNWD")))

# A tibble: 236,232 × 4
   Location Date       Element Value
   <chr>    <date>     <chr>   <dbl>
 1 HI       1950-12-01 TMAX      239
 2 HI       1950-12-01 TMIN      200
 3 HI       1950-12-01 PRCP       79
 4 HI       1950-12-01 SNOW        0
 5 HI       1950-12-01 SNWD        0
 6 HI       1950-12-02 TMAX      233
 7 HI       1950-12-02 TMIN      189
 8 HI       1950-12-02 PRCP      269
 9 HI       1950-12-02 SNOW        0
10 HI       1950-12-02 SNWD        0
# ℹ 236,222 more rows

1.3.2 Missing data

Next step is to check to see if there is any missing data. To do this, we can count the number of observations for each year in each respective group. We expect there to be one observation per day, so ideally approximately 365 observations per year at each location for each measurement.

Code
# check dataset for years with missing data
# -> count the number of days within each year that have a measurement (for all elements from each location)
(data_years <- data_clean %>% 
  count(Location,
        year = year(Date),
        Element))

# A tibble: 711 × 4
   Location  year Element     n
   <chr>    <dbl> <chr>   <int>
 1 AK        1963 PRCP       55
 2 AK        1963 SNOW       55
 3 AK        1963 SNWD       55
 4 AK        1963 TMAX       55
 5 AK        1963 TMIN       55
 6 AK        1964 PRCP       89
 7 AK        1964 SNOW       89
 8 AK        1964 SNWD       14
 9 AK        1964 TMAX       87
10 AK        1964 TMIN       87
# ℹ 701 more rows
…
Should only use data for years 1980 and beyond for AK moving forward.

Should only use data up to and including year 2002 for HI moving forward.

Now that we have visually inspected the count data, we can make some initial decisions about which data to work or not work with. Getting these out of the way before diving in more will make it easier.

Code
# start refining the data
# -> keep only the elements that are going to be visualized
(data_climate <- data_clean %>%
  filter(Element %in% c("TMIN",
                        "TMAX",
                        "PRCP")))

# A tibble: 163,669 × 4
   Location Date       Element Value
   <chr>    <date>     <chr>   <dbl>
 1 HI       1950-12-01 TMAX      239
 2 HI       1950-12-01 TMIN      200
 3 HI       1950-12-01 PRCP       79
 4 HI       1950-12-02 TMAX      233
 5 HI       1950-12-02 TMIN      189
 6 HI       1950-12-02 PRCP      269
 7 HI       1950-12-03 TMAX      228
 8 HI       1950-12-03 TMIN      194
 9 HI       1950-12-03 PRCP      457
10 HI       1950-12-04 TMAX      267
# ℹ 163,659 more rows

Now lets look into the count data with only the desired elements to see exactly what’s going on.

Code
# look further into count data
# convert to wide data to be able to compactly look at how much data there is (or is not) for each element
# can also manually sort by year to look at locations within year when inspecting
(data_years_wide <- data_climate %>% 
  count(Location,
        year = year(Date),
        Element) %>% 
  pivot_wider(names_from = "Element",
              values_from = "n"))

# A tibble: 163 × 5
   Location  year  PRCP  TMAX  TMIN
   <chr>    <dbl> <int> <int> <int>
 1 AK        1963    55    55    55
 2 AK        1964    89    87    87
 3 AK        1965   120   120   120
 4 AK        1966   119   120   120
 5 AK        1967   165   202   202
 6 AK        1968   211   326   326
 7 AK        1969    55    61    61
 8 AK        1970   349   356   356
 9 AK        1971   363   327   328
10 AK        1972   354   297   297
# ℹ 153 more rows
…
Sets of years where there is consistently not good data.

One-off years with only a few observations.

Also note that there is no data in the original dataset from 2003 for some reason. This will obviously show up in the final visuals, but nothing that can be done about it (although measures will be taken to ensure accurate portrayals as described later).

Code
# continue refining climate data to move forward with
# -> remove years with not good data
(data_climate %<>% 
  filter(!(Location == "AK" & (year(Date) < 1980 | year(Date) == 2019)),
         !(Location == "AU" & (year(Date) %in% c(1970, 2019))),
         !(Location == "HI" & (year(Date) > 2002 | year(Date) == 1950))))

# A tibble: 149,826 × 4
   Location Date       Element Value
   <chr>    <date>     <chr>   <dbl>
 1 HI       1951-01-01 PRCP        0
 2 HI       1951-01-02 TMIN      228
 3 HI       1951-01-02 PRCP        0
 4 HI       1951-01-03 TMIN      206
 5 HI       1951-01-03 PRCP       64
 6 HI       1951-01-04 TMIN      200
 7 HI       1951-01-04 PRCP       15
 8 HI       1951-01-05 TMIN      194
 9 HI       1951-01-05 PRCP        8
10 HI       1951-01-06 TMIN      194
# ℹ 149,816 more rows
…
    # count the number of rows per day
    # add back in the element info for when combining the results later
    element_data %>% 
      count(Location, Date) %>% 
      mutate(Element = unique(element_data$Element))
    
    }, mc.cores = 4) %>% 
  Reduce(f = bind_rows, x = .))

# A tibble: 2,106 × 4
   Location Date           n Element
   <chr>    <date>     <int> <chr>  
 1 AK       2004-01-01     2 PRCP   
 2 AK       2004-01-02     2 PRCP   
 3 AK       2004-01-03     2 PRCP   
 4 AK       2004-01-04     2 PRCP   
 5 AK       2004-01-05     2 PRCP   
 6 AK       2004-01-06     2 PRCP   
 7 AK       2004-01-07     2 PRCP   
 8 AK       2004-01-08     2 PRCP   
 9 AK       2004-01-09     2 PRCP   
10 AK       2004-01-10     2 PRCP   
# ℹ 2,096 more rows

We see \(n = 2\), so multiple observations for each day is confirmed. To consolidate these, we are going to average all observations from a single day. This is to have just a single value per day, which will ensure that each day has the same weight when taking monthly averages later. If one day has more than one record, then it would be like there is an extra day, which is an inaccurate interpretation.

Code
# adjust data from 2004
# -> filter climate data to only 2004
# -> group by identifying variables
# -> average the multiple observations
(data_2004 <- data_climate %>% 
  filter(year(Date) == 2004) %>% 
  group_by(Element, Location, Date) %>% 
  summarize(Value = mean(Value)) %>% 
  ungroup)

# A tibble: 2,106 × 4
   Element Location Date       Value
   <chr>   <chr>    <date>     <dbl>
 1 PRCP    AK       2004-01-01     0
 2 PRCP    AK       2004-01-02     0
 3 PRCP    AK       2004-01-03     0
 4 PRCP    AK       2004-01-04     0
 5 PRCP    AK       2004-01-05     0
 6 PRCP    AK       2004-01-06     0
 7 PRCP    AK       2004-01-07     0
 8 PRCP    AK       2004-01-08     0
 9 PRCP    AK       2004-01-09   185
10 PRCP    AK       2004-01-10   231
# ℹ 2,096 more rows
…
Code
# now run the summarized data back through the checking procedure to confirm that there is now only one obs per day
(data_2004_recheck <- data_2004 %>% 
  split(.$Element) %>% 
  mclapply(FUN = function(element_data) {
    
    element_data %>% 
      count(Location, Date) %>% 
      mutate(Element = unique(element_data$Element))
    
  }, mc.cores = 4) %>% 
  Reduce(f = bind_rows, x = .))

# A tibble: 2,106 × 4
   Location Date           n Element
   <chr>    <date>     <int> <chr>  
 1 AK       2004-01-01     1 PRCP   
 2 AK       2004-01-02     1 PRCP   
 3 AK       2004-01-03     1 PRCP   
 4 AK       2004-01-04     1 PRCP   
 5 AK       2004-01-05     1 PRCP   
 6 AK       2004-01-06     1 PRCP   
 7 AK       2004-01-07     1 PRCP   
 8 AK       2004-01-08     1 PRCP   
 9 AK       2004-01-09     1 PRCP   
10 AK       2004-01-10     1 PRCP   
# ℹ 2,096 more rows
…
# now continue with refining climate dataset
# -> remove original 2004 data
# -> add in the corrected 2004 data to the rest of the correct data
# -> sort in a logical way
# -> adjust values to have readable units (originally in 10ths of degrees and 10ths of mm)
# -> remove original value variable
# this is a final plotting dataset as well as the base dataset that future datasets start with 
(data_climate %<>% 
  filter(year(Date) != 2004) %>% 
  bind_rows(data_2004) %>% 
  arrange(Element, Location, Date) %>% 
  mutate(value = Value / 10) %>% 
  select(-Value))

# A tibble: 147,720 × 4
   Location Date       Element value
   <chr>    <date>     <chr>   <dbl>
 1 AK       1980-01-01 PRCP      0  
 2 AK       1980-01-02 PRCP      0  
 3 AK       1980-01-03 PRCP      0  
 4 AK       1980-01-04 PRCP      0  
 5 AK       1980-01-05 PRCP      8.6
 6 AK       1980-01-06 PRCP      0  
 7 AK       1980-01-07 PRCP      0  
 8 AK       1980-01-08 PRCP      0  
 9 AK       1980-01-09 PRCP      0  
10 AK       1980-01-10 PRCP      0  
# ℹ 147,710 more rows
…
           Element) %>% 
  summarize(day = max(day(Date)),
            value_avg = round(mean(value), 1)) %>% 
  ungroup %>% 
  mutate(date = ymd(paste(year, month, day, sep = "-")),
         line_plot_group = ifelse(test = year < 2003,
                                  yes = 1,
                                  no = 2)) %>% 
  select(Location,
         date,
         Element,
         value_avg,
         line_plot_group))

# A tibble: 4,896 × 5
   Location date       Element value_avg line_plot_group
   <chr>    <date>     <chr>       <dbl>           <dbl>
 1 AK       1980-01-31 PRCP         10.2               1
 2 AK       1980-01-31 TMAX         -6.4               1
 3 AK       1980-01-31 TMIN        -14.1               1
 4 AK       1980-02-29 PRCP         13.4               1
 5 AK       1980-02-29 TMAX          1.8               1
 6 AK       1980-02-29 TMIN         -5.2               1
 7 AK       1980-03-31 PRCP          3.1               1
 8 AK       1980-03-31 TMAX          1.6               1
 9 AK       1980-03-31 TMIN         -5.6               1
10 AK       1980-04-30 PRCP          7.8               1
# ℹ 4,886 more rows
…
